1001           שירה רבינר                                        00000545225521                    התאנה 6                                           תל מונד             65465                                                  300285939shira@rapid-image.com                             
1002           מיכל כהן                                          00000545225521                    קפלנסקי 1 דירה 9                                  נתניה               12346                                                  300304003shirarabiner@gmail.com                            
1003           הילה לוי                                          0000                              המלאכה  14                                        נתניה               00000                                                                                                             
1004           ישראל ישראלי                                      00000545525525                                                                                                                                                 051651651                                                  
1005           לריסה רויטבורד                                    0000                                                                                נתניה               00000                                                                                                             
1006           שירן  נימני                                       0000                                                                                נתניה               00000                                                                                                             
1007           1 2                                               0000                                                                                נתניה               00000                                                                                                             
1008           2332 23                                           0000                                                                                נתניה               00000                                                                                                             
1009           דן דן                                             0000                                                                                נתניה               00000                                                                                                             
